{
    "/js/manifest.js": "/js/manifest.js?id=6a4eb117ddc7ca47286f",
    "/js/manifest.js.map": "/js/manifest.js.map?id=2b7092fd6e2c065e72d7",
    "/js/vendor.js": "/js/vendor.js?id=756d528c6d79285d8689",
    "/js/vendor.js.map": "/js/vendor.js.map?id=701fc9608b0447e9a3d6",
    "/js/backend.js": "/js/backend.js?id=01a766f5e00c8419152d",
    "/js/backend.js.map": "/js/backend.js.map?id=460c95da1080cdd7a817",
    "/js/frontend.js": "/js/frontend.js?id=1656c32739b756455561",
    "/css/frontend.css": "/css/frontend.css?id=ed1f27d10c5fccc8f5bf",
    "/css/backend.css": "/css/backend.css?id=08af291950d4e48fad2b",
    "/js/frontend.js.map": "/js/frontend.js.map?id=edcd8fdefacd3f282326"
}
